sf-tutorial.knit
…
1 World map with sf package

BACKGROUND: sf object is a special type of data frame with a geometry column that contains the spatial information of the object. The geometry column is a list of simple feature geometry objects. The sf object can be plotted using geom_sf() from ggplot2.

# function ne_countries() from rnaturalearth package
sf.world = rnaturalearth::ne_countries(scale = "medium", returnclass = "sf")

as_tibble(sf.world)

## # A tibble: 242 × 169
##    featurecla   scalerank labelrank sovereignt sov_a3 adm0_dif level type  tlc  
##    <chr>            <int>     <int> <chr>      <chr>     <int> <int> <chr> <chr>
##  1 Admin-0 cou…         1         3 Zimbabwe   ZWE           0     2 Sove… 1    
##  2 Admin-0 cou…         1         3 Zambia     ZMB           0     2 Sove… 1    
##  3 Admin-0 cou…         1         3 Yemen      YEM           0     2 Sove… 1    
##  4 Admin-0 cou…         3         2 Vietnam    VNM           0     2 Sove… 1    
##  5 Admin-0 cou…         5         3 Venezuela  VEN           0     2 Sove… 1    
##  6 Admin-0 cou…         6         6 Vatican    VAT           0     2 Sove… 1    
##  7 Admin-0 cou…         1         4 Vanuatu    VUT           0     2 Sove… 1    
##  8 Admin-0 cou…         1         3 Uzbekistan UZB           0     2 Sove… 1    
##  9 Admin-0 cou…         1         4 Uruguay    URY           0     2 Sove… 1    
## 10 Admin-0 cou…         3         6 Federated… FSM           0     2 Sove… 1    
## # ℹ 232 more rows
## # ℹ 160 more variables: admin <chr>, adm0_a3 <chr>, geou_dif <int>,
## #   geounit <chr>, gu_a3 <chr>, su_dif <int>, subunit <chr>, su_a3 <chr>,
## #   brk_diff <int>, name <chr>, name_long <chr>, brk_a3 <chr>, brk_name <chr>,
## #   brk_group <chr>, abbrev <chr>, postal <chr>, formal_en <chr>,
## #   formal_fr <chr>, name_ciawf <chr>, note_adm0 <chr>, note_brk <chr>,
## #   name_sort <chr>, name_alt <chr>, mapcolor7 <int>, mapcolor8 <int>, …
…
